<?xml version="1.0" encoding="utf-8"?>
<!-- Generator: Adobe Illustrator 19.1.0, SVG Export Plug-In . SVG Version: 6.00 Build 0)  -->
<svg version="1.1" id="Layer_1" xmlns="http://www.w3.org/2000/svg" xmlns:xlink="http://www.w3.org/1999/xlink" x="0px" y="0px"
	 viewBox="0 0 32 32" style="enable-background:new 0 0 32 32;" xml:space="preserve">
<style type="text/css">
	.st0{opacity:0.4;fill:#FFFFFF;}
	.st1{opacity:0.6;fill:#FFFFFF;}
	.st2{opacity:0.8;fill:#FFFFFF;}
	.st3{fill:#FFFFFF;}
</style>
<g>
	<polygon class="st0" points="30.6,20.2 18.3,10.2 16,11.6 	"/>
	<path class="st1" d="M18.3,10.2l12.3,10l0,0c0.2-0.4,0.3-0.8,0.3-1.2v-6.5V4.2V2.8L18.3,10.2z"/>
	<path class="st2" d="M17.6,12.6L16,11.6v17.2c0.4,0,0.8-0.1,1.2-0.3l12.7-7.4c0.3-0.2,0.6-0.5,0.8-0.9L17.6,12.6z"/>
	<path class="st3" d="M1,2.8v1.4v8.4V19c0,0.7,0.5,1.7,1.2,2l12.7,7.4c0.3,0.2,0.7,0.3,1.2,0.3V11.6L1,2.8z"/>
</g>
</svg>
